[CPP][INFO] Initialize (C++) error manager...
[CPP][INFO] Registering NULL...
[CPP][INFO] Registering BURST1...
[CPP][INFO] Registering BURST2...
[CPP][INFO] Registering BURST4...
[CPP][INFO] Registering BURST8...
[CPP][INFO] Registering RANDOM...
[CPP][INFO] Registering RANDOM_LH...
[CPP][INFO] Registering RANDBIT1...
[CPP][INFO] Registering RANDBIT2...
[CPP][INFO] Registering RANDBIT4...
[CPP][INFO] Registering RANDBIT8...
[CPP][INFO] Registering WRANDBIT1...
[CPP][INFO] Registering WRANDBIT2...
[CPP][INFO] Registering WRANDBIT4...
[CPP][INFO] Registering WRANDBIT8...
[CPP][INFO] Registering MANTB1...
[CPP][INFO] Registering MANTB2...
[CPP][INFO] Registering MANTB4...
[CPP][INFO] Registering MANTB8...
[CPP][INFO] Registering MANTRAND...
[CPP][INFO] Registering MANTRAND2...
[CPP][INFO] Registering MANTRAND4...
[CPP][INFO] Registering MANTRAND8...
[CPP][INFO] Registering MANTRAND16...
[CPP][INFO] Registering MANTRAND2I...
[CPP][INFO] Registering MANTRAND4I...
[CPP][INFO] Registering MANTRAND8I...
[CPP][INFO] Registering MANTRAND16I...
[CPP][INFO] Registering MANTR1...
[CPP][INFO] Registering MANTR2...
[CPP][INFO] Registering MANTR4...
[CPP][INFO] Registering MANTR8...
[CPP][INFO] Registering TIMING_PREV1...
[CPP][INFO] Registering TIMING_LUT85...
[CPP][INFO] Registering TIMING_LUT78...
[CPP][INFO] Registering MEM_HIGH...
[CPP][INFO] Registering MEM_LOW...
[CPP][INFO] Registering MEM_FLIP...
[CPP][INFO] Registering MODULO3...
[CPP][INFO] Registering MODULO5...
[CPP][INFO] Registering MODULO3_5...
[CPP][INFO] Init python...
[CPP][INFO] Registering TIMING_RTL...
[CPP][INFO] Create timing error injector...
[CPP][INFO] Load PYYAML file...
[CPP][INFO] Call Python, Setup
[CPP][INFO] Python Done (1)
[CPP][INFO] =====Enter PHASE_GET_PREV=====
[CPP][INFO] Overprovision injection points for single transient error...
[CPP][INFO] Register Output injection
[CPP][INFO] Injection Mode...
[CPP][INFO] Pre-Inst routine...
[CPP][INFO] Pre state save...
[CPP][INFO] Post-Inst routine...
[CPP][INFO] Save Post state to previous context...
[CPP][INFO] =====Enter PHASE_EVAL=====
[CPP][INFO] Pre-Inst routine...
[CPP][INFO] Post-Inst routine...
[CPP][INFO] Pre-Inst routine...
[CPP][INFO] Post-Inst routine...
[CPP][INFO] Pre-Inst routine...
[CPP][INFO] Pre state save...
[CPP][INFO] Post-Inst routine...
[CPP][INFO] Post state save...
[CPP][INFO] =====Enter PHASE_INJECT=====
[CPP][INFO] Rollback to target...
[CPP][INFO] Rollback inputs...
[CPP][INFO] Debug Rollback Input REG,lane 0 has value 0x3fea446c9167dc4d
[CPP][INFO] Debug Rollback Input REG,lane 0 has value 0x3fd8d59b3fb1ab36
[CPP][INFO] Rollback outputs...
[CPP][INFO] Pre-Inst routine...
[CPP][INFO] Post-Inst routine...
[CPP][INFO] Iterative injection loop disabled ...
[CPP][INFO] Load PYYAML file...
[CPP][INFO] Call Python, InjectError
Use liberty file: /work/03844/cchang81/lonestar/hamartia/timing_error_injector/saed32_liberty/saed32rvt_tt0p78v25c.lib
Injection mask: [0, 0, 1]
Prev input: [{'inst_b': 4605214589561196061, 'inst_a': 13823654526901483804L, 'inst_rnd': 0}]
Cur input: [{'inst_b': 4600661882124217142, 'inst_a': 4605568802026413133, 'inst_rnd': 0}]
Retrieved module io mapping from cache...
Retrieved module io mapping from cache...
Retrieved module io mapping from cache...
Simulation done for fp_mult_64b_2_stages
[CPP][INFO] Python Done (1)
[CPP][INFO] Injected error masked by instruction, continue...
[CPP][INFO] INJ 0 at filtered instr # 1008330475
[CPP][INFO] Try next injection point...
[CPP][INFO] =====Enter PHASE_GET_PREV=====
[CPP][INFO] Pre-Inst routine...
[CPP][INFO] Pre state save...
[CPP][INFO] Post-Inst routine...
[CPP][INFO] Save Post state to previous context...
[CPP][INFO] =====Enter PHASE_EVAL=====
[CPP][INFO] Pre-Inst routine...
[CPP][INFO] Pre state save...
[CPP][INFO] Post-Inst routine...
[CPP][INFO] Post state save...
[CPP][INFO] =====Enter PHASE_INJECT=====
[CPP][INFO] Rollback to target...
[CPP][INFO] Rollback inputs...
[CPP][INFO] Debug Rollback Input REG,lane 0 has value 0x7b24b
[CPP][INFO] Debug Rollback Input REG,lane 0 has value 0x75478
[CPP][INFO] Rollback outputs...
[CPP][INFO] Pre-Inst routine...
[CPP][INFO] Post-Inst routine...
[CPP][INFO] Iterative injection loop disabled ...
[CPP][INFO] Load PYYAML file...
[CPP][INFO] Call Python, InjectError
Use liberty file: /work/03844/cchang81/lonestar/hamartia/timing_error_injector/saed32_liberty/saed32rvt_tt0p78v25c.lib
Injection mask: [1]
Prev input: [{'inst_B': 480376, 'inst_A': 24019, 'inst_CI': 0, 'inst_ADD_SUB': 1}]
Cur input: [{'inst_B': 480376, 'inst_A': 504395, 'inst_CI': 0, 'inst_ADD_SUB': 1}]
Retrieved module io mapping from cache...
Simulation done for sub_64b
[CPP][INFO] Python Done (1)
[CPP][INFO] Injected error masked by instruction, continue...
[CPP][INFO] INJ 0 at filtered instr # 1906744835
[CPP][INFO] Try next injection point...
[CPP][INFO] =====Enter PHASE_GET_PREV=====
[CPP][INFO] Pre-Inst routine...
[CPP][INFO] Pre state save...
[CPP][INFO] Post-Inst routine...
[CPP][INFO] Save Post state to previous context...
[CPP][INFO] =====Enter PHASE_EVAL=====
[CPP][INFO] Pre-Inst routine...
[CPP][INFO] Post-Inst routine...
[CPP][INFO] Pre-Inst routine...
[CPP][INFO] Post-Inst routine...
[CPP][INFO] Pre-Inst routine...
[CPP][INFO] Post-Inst routine...
[CPP][INFO] Pre-Inst routine...
[CPP][INFO] Post-Inst routine...
[CPP][INFO] Pre-Inst routine...
[CPP][INFO] Post-Inst routine...
[CPP][INFO] Pre-Inst routine...
[CPP][INFO] Post-Inst routine...
[CPP][INFO] Pre-Inst routine...
[CPP][INFO] Post-Inst routine...
[CPP][INFO] Pre-Inst routine...
[CPP][INFO] Post-Inst routine...
[CPP][INFO] Pre-Inst routine...
[CPP][INFO] Post-Inst routine...
[CPP][INFO] Pre-Inst routine...
[CPP][INFO] Post-Inst routine...
[CPP][INFO] Pre-Inst routine...
[CPP][INFO] Post-Inst routine...
[CPP][INFO] Pre-Inst routine...
[CPP][INFO] Post-Inst routine...
[CPP][INFO] Pre-Inst routine...
[CPP][INFO] Post-Inst routine...
[CPP][INFO] Pre-Inst routine...
[CPP][INFO] Post-Inst routine...
[CPP][INFO] Pre-Inst routine...
[CPP][INFO] Post-Inst routine...
[CPP][INFO] Pre-Inst routine...
[CPP][INFO] Post-Inst routine...
[CPP][INFO] Pre-Inst routine...
[CPP][INFO] Post-Inst routine...
[CPP][INFO] Pre-Inst routine...
[CPP][INFO] Post-Inst routine...
[CPP][INFO] Pre-Inst routine...
[CPP][INFO] Post-Inst routine...
[CPP][INFO] Pre-Inst routine...
[CPP][INFO] Post-Inst routine...
[CPP][INFO] Pre-Inst routine...
[CPP][INFO] Post-Inst routine...
[CPP][INFO] Pre-Inst routine...
[CPP][INFO] Post-Inst routine...
[CPP][INFO] Pre-Inst routine...
[CPP][INFO] Post-Inst routine...
[CPP][INFO] Pre-Inst routine...
[CPP][INFO] Post-Inst routine...
[CPP][INFO] Pre-Inst routine...
[CPP][INFO] Post-Inst routine...
[CPP][INFO] Pre-Inst routine...
[CPP][INFO] Post-Inst routine...
[CPP][INFO] Pre-Inst routine...
[CPP][INFO] Post-Inst routine...
[CPP][INFO] Pre-Inst routine...
[CPP][INFO] Post-Inst routine...
[CPP][INFO] Pre-Inst routine...
[CPP][INFO] Pre state save...
[CPP][INFO] Post-Inst routine...
[CPP][INFO] Post state save...
[CPP][INFO] =====Enter PHASE_INJECT=====
[CPP][INFO] Rollback to target...
[CPP][INFO] Rollback inputs...
[CPP][INFO] Debug Rollback Input REG,lane 0 has value 0x44e20
[CPP][INFO] Debug Rollback Input MEM,lane 0 has value 0x2aaac9794d50
[CPP][INFO] Rollback outputs...
[CPP][INFO] Pre-Inst routine...
[CPP][INFO] Post-Inst routine...
[CPP][INFO] Iterative injection loop disabled ...
[CPP][INFO] Load PYYAML file...
[CPP][INFO] Call Python, InjectError
Use liberty file: /work/03844/cchang81/lonestar/hamartia/timing_error_injector/saed32_liberty/saed32rvt_tt0p78v25c.lib
Injection mask: [1]
Prev input: [{'inst_B': 1, 'inst_A': 1, 'inst_CI': 0, 'inst_ADD_SUB': 0}]
Cur input: [{'inst_B': 46913012976976, 'inst_A': 282144, 'inst_CI': 0, 'inst_ADD_SUB': 0}]
Retrieved module io mapping from cache...
Simulation done for add_64b
[CPP][INFO] Python Done (1)
[CPP][INFO] Injected error masked by instruction, continue...
[CPP][INFO] INJ 0 at filtered instr # 3029057914
[CPP][INFO] Try next injection point...
[CPP][INFO] =====Enter PHASE_GET_PREV=====
[CPP][INFO] Pre-Inst routine...
[CPP][INFO] Pre state save...
[CPP][INFO] Post-Inst routine...
[CPP][INFO] Save Post state to previous context...
[CPP][INFO] =====Enter PHASE_EVAL=====
[CPP][INFO] Pre-Inst routine...
[CPP][INFO] Pre state save...
[CPP][INFO] Post-Inst routine...
[CPP][INFO] Post state save...
[CPP][INFO] =====Enter PHASE_INJECT=====
[CPP][INFO] Rollback to target...
[CPP][INFO] Rollback inputs...
[CPP][INFO] Debug Rollback Input REG,lane 0 has value 0x6a5
[CPP][INFO] Debug Rollback Input IMM,lane 0 has value 0x1
[CPP][INFO] Rollback outputs...
[CPP][INFO] Pre-Inst routine...
[CPP][INFO] Post-Inst routine...
[CPP][INFO] Iterative injection loop disabled ...
[CPP][INFO] Load PYYAML file...
[CPP][INFO] Call Python, InjectError
Use liberty file: /work/03844/cchang81/lonestar/hamartia/timing_error_injector/saed32_liberty/saed32rvt_tt0p78v25c.lib
Injection mask: [1]
Prev input: [{'inst_B': 0, 'inst_A': 1701, 'inst_CI': 0, 'inst_ADD_SUB': 1}]
Cur input: [{'inst_B': 1, 'inst_A': 1701, 'inst_CI': 0, 'inst_ADD_SUB': 1}]
Retrieved module io mapping from cache...
Simulation done for sub_32b
[CPP][INFO] Python Done (1)
[CPP][INFO] Injected error masked by instruction, continue...
[CPP][INFO] INJ 0 at filtered instr # 3112819187
[CPP][INFO] Try next injection point...
[CPP][INFO] =====Enter PHASE_GET_PREV=====
[CPP][INFO] Pre-Inst routine...
[CPP][INFO] Pre state save...
[CPP][INFO] Post-Inst routine...
[CPP][INFO] Save Post state to previous context...
[CPP][INFO] =====Enter PHASE_EVAL=====
[CPP][INFO] Pre-Inst routine...
[CPP][INFO] Pre state save...
[CPP][INFO] Post-Inst routine...
[CPP][INFO] Post state save...
[CPP][INFO] =====Enter PHASE_INJECT=====
[CPP][INFO] Rollback to target...
[CPP][INFO] Rollback inputs...
[CPP][INFO] Debug Rollback Input REG,lane 0 has value 0x3fe7c1c398ef8387
[CPP][INFO] Debug Rollback Input REG,lane 0 has value 0xbf9c441ba404f259
[CPP][INFO] Rollback outputs...
[CPP][INFO] Pre-Inst routine...
[CPP][INFO] Post-Inst routine...
[CPP][INFO] Iterative injection loop disabled ...
[CPP][INFO] Load PYYAML file...
[CPP][INFO] Call Python, InjectError
Use liberty file: /work/03844/cchang81/lonestar/hamartia/timing_error_injector/saed32_liberty/saed32rvt_tt0p78v25c.lib
Injection mask: [0, 0, 1]
Prev input: [{'inst_b': 4591776438616723193, 'inst_a': 4590370666547107437, 'inst_rnd': 0, 'inst_op': 1}]
Cur input: [{'inst_b': 13806985443117691481L, 'inst_a': 4604862189838238599, 'inst_rnd': 0, 'inst_op': 1}]
Retrieved module io mapping from cache...
Retrieved module io mapping from cache...
Retrieved module io mapping from cache...
Simulation done for fp_sub_64b_2_stages
[CPP][INFO] Python Done (1)
[CPP][INFO] Injected error masked by instruction, continue...
[CPP][INFO] INJ 0 at filtered instr # 4608744629
[CPP][INFO] Try next injection point...
[CPP][INFO] =====Enter PHASE_GET_PREV=====
[CPP][INFO] Pre-Inst routine...
[CPP][INFO] Pre state save...
[CPP][INFO] Post-Inst routine...
[CPP][INFO] Save Post state to previous context...
[CPP][INFO] =====Enter PHASE_EVAL=====
[CPP][INFO] Pre-Inst routine...
[CPP][INFO] Pre state save...
[CPP][INFO] Post-Inst routine...
[CPP][INFO] Post state save...
[CPP][INFO] =====Enter PHASE_INJECT=====
[CPP][INFO] Rollback to target...
[CPP][INFO] Rollback inputs...
[CPP][INFO] Debug Rollback Input REG,lane 0 has value 0x5
[CPP][INFO] Debug Rollback Input REG,lane 0 has value 0x0
[CPP][INFO] Rollback outputs...
[CPP][INFO] Pre-Inst routine...
[CPP][INFO] Post-Inst routine...
[CPP][INFO] Iterative injection loop disabled ...
[CPP][INFO] Load PYYAML file...
[CPP][INFO] Call Python, InjectError
Use liberty file: /work/03844/cchang81/lonestar/hamartia/timing_error_injector/saed32_liberty/saed32rvt_tt0p78v25c.lib
Injection mask: [1]
Prev input: [{'inst_B': 1, 'inst_A': 49, 'inst_CI': 0, 'inst_ADD_SUB': 0}]
Cur input: [{'inst_B': 0, 'inst_A': 5, 'inst_CI': 0, 'inst_ADD_SUB': 0}]
Retrieved module io mapping from cache...
Simulation done for add_32b
[CPP][INFO] Python Done (1)
[CPP][INFO] Injected error masked by instruction, continue...
[CPP][INFO] INJ 0 at filtered instr # 7114383752
[CPP][INFO] Try next injection point...
[CPP][INFO] =====Enter PHASE_GET_PREV=====
[CPP][INFO] Pre-Inst routine...
[CPP][INFO] Pre state save...
[CPP][INFO] Post-Inst routine...
[CPP][INFO] Save Post state to previous context...
[CPP][INFO] =====Enter PHASE_EVAL=====
[CPP][INFO] Pre-Inst routine...
[CPP][INFO] Post-Inst routine...
[CPP][INFO] Pre-Inst routine...
[CPP][INFO] Pre state save...
[CPP][INFO] Post-Inst routine...
[CPP][INFO] Post state save...
[CPP][INFO] =====Enter PHASE_INJECT=====
[CPP][INFO] Rollback to target...
[CPP][INFO] Rollback inputs...
[CPP][INFO] Debug Rollback Input REG,lane 0 has value 0xa
[CPP][INFO] Debug Rollback Input REG,lane 0 has value 0x0
[CPP][INFO] Rollback outputs...
[CPP][INFO] Pre-Inst routine...
[CPP][INFO] Post-Inst routine...
[CPP][INFO] Iterative injection loop disabled ...
[CPP][INFO] Load PYYAML file...
[CPP][INFO] Call Python, InjectError
Use liberty file: /work/03844/cchang81/lonestar/hamartia/timing_error_injector/saed32_liberty/saed32rvt_tt0p78v25c.lib
Injection mask: [1]
Prev input: [{'inst_B': 140737488322088, 'inst_A': 140737488322116, 'inst_CI': 0, 'inst_ADD_SUB': 0}]
Cur input: [{'inst_B': 0, 'inst_A': 10, 'inst_CI': 0, 'inst_ADD_SUB': 0}]
Retrieved module io mapping from cache...
Simulation done for add_64b
[CPP][INFO] Python Done (1)
[CPP][INFO] Injected error masked by instruction, continue...
[CPP][INFO] INJ 0 at filtered instr # 7215083705
[CPP][INFO] Try next injection point...
[CPP][INFO] =====Enter PHASE_GET_PREV=====
[CPP][INFO] Pre-Inst routine...
[CPP][INFO] Pre state save...
[CPP][INFO] Post-Inst routine...
[CPP][INFO] Save Post state to previous context...
[CPP][INFO] =====Enter PHASE_EVAL=====
[CPP][INFO] Pre-Inst routine...
[CPP][INFO] Pre state save...
[CPP][INFO] Post-Inst routine...
[CPP][INFO] Post state save...
[CPP][INFO] =====Enter PHASE_INJECT=====
[CPP][INFO] Rollback to target...
[CPP][INFO] Rollback inputs...
[CPP][INFO] Debug Rollback Input REG,lane 0 has value 0x29
[CPP][INFO] Debug Rollback Input REG,lane 0 has value 0x1
[CPP][INFO] Rollback outputs...
[CPP][INFO] Pre-Inst routine...
[CPP][INFO] Post-Inst routine...
[CPP][INFO] Iterative injection loop disabled ...
[CPP][INFO] Load PYYAML file...
[CPP][INFO] Call Python, InjectError
Use liberty file: /work/03844/cchang81/lonestar/hamartia/timing_error_injector/saed32_liberty/saed32rvt_tt0p78v25c.lib
Injection mask: [1]
Prev input: [{'inst_B': 41, 'inst_A': 2147483647, 'inst_CI': 0, 'inst_ADD_SUB': 0}]
Cur input: [{'inst_B': 1, 'inst_A': 41, 'inst_CI': 0, 'inst_ADD_SUB': 0}]
Retrieved module io mapping from cache...
Simulation done for add_32b
[CPP][INFO] Python Done (1)
[CPP][INFO] Injected error masked by instruction, continue...
[CPP][INFO] INJ 0 at filtered instr # 7256951643
[CPP][INFO] Try next injection point...
[CPP][INFO] =====Enter PHASE_GET_PREV=====
[CPP][INFO] Pre-Inst routine...
[CPP][INFO] Pre state save...
[CPP][INFO] Post-Inst routine...
[CPP][INFO] Save Post state to previous context...
[CPP][INFO] =====Enter PHASE_EVAL=====
[CPP][INFO] Pre-Inst routine...
[CPP][INFO] Pre state save...
[CPP][INFO] Post-Inst routine...
[CPP][INFO] Post state save...
[CPP][INFO] =====Enter PHASE_INJECT=====
[CPP][INFO] Rollback to target...
[CPP][INFO] Rollback inputs...
[CPP][INFO] Debug Rollback Input REG,lane 0 has value 0x7fffffff7e05
[CPP][INFO] Debug Rollback Input IMM,lane 0 has value 0x1
[CPP][INFO] Rollback outputs...
[CPP][INFO] Pre-Inst routine...
[CPP][INFO] Post-Inst routine...
[CPP][INFO] Iterative injection loop disabled ...
[CPP][INFO] Load PYYAML file...
[CPP][INFO] Call Python, InjectError
Use liberty file: /work/03844/cchang81/lonestar/hamartia/timing_error_injector/saed32_liberty/saed32rvt_tt0p78v25c.lib
Injection mask: [1]
Prev input: [{'inst_B': 1, 'inst_A': 3, 'inst_CI': 0, 'inst_ADD_SUB': 0}]
Cur input: [{'inst_B': 1, 'inst_A': 140737488322053, 'inst_CI': 0, 'inst_ADD_SUB': 0}]
Retrieved module io mapping from cache...
Simulation done for add_64b
[CPP][INFO] Python Done (1)
[CPP][INFO] Injected error masked by instruction, continue...
[CPP][INFO] INJ 0 at filtered instr # 11181361409
[CPP][INFO] Try next injection point...
[CPP][INFO] =====Enter PHASE_GET_PREV=====
[CPP][INFO] Pre-Inst routine...
[CPP][INFO] Pre state save...
[CPP][INFO] Post-Inst routine...
[CPP][INFO] Save Post state to previous context...
[CPP][INFO] =====Enter PHASE_EVAL=====
[CPP][INFO] Pre-Inst routine...
[CPP][INFO] Post-Inst routine...
[CPP][INFO] Pre-Inst routine...
[CPP][INFO] Post-Inst routine...
[CPP][INFO] Pre-Inst routine...
[CPP][INFO] Pre state save...
[CPP][INFO] Post-Inst routine...
[CPP][INFO] Post state save...
[CPP][INFO] =====Enter PHASE_INJECT=====
[CPP][INFO] Rollback to target...
[CPP][INFO] Rollback inputs...
[CPP][INFO] Debug Rollback Input REG,lane 0 has value 0x7fffffff8945
[CPP][INFO] Debug Rollback Input IMM,lane 0 has value 0x1
[CPP][INFO] Rollback outputs...
[CPP][INFO] Pre-Inst routine...
[CPP][INFO] Post-Inst routine...
[CPP][INFO] Iterative injection loop disabled ...
[CPP][INFO] Load PYYAML file...
[CPP][INFO] Call Python, InjectError
Use liberty file: /work/03844/cchang81/lonestar/hamartia/timing_error_injector/saed32_liberty/saed32rvt_tt0p78v25c.lib
Injection mask: [1]
Prev input: [{'inst_B': 1, 'inst_A': 140737488324932, 'inst_CI': 0, 'inst_ADD_SUB': 0}]
Cur input: [{'inst_B': 1, 'inst_A': 140737488324933, 'inst_CI': 0, 'inst_ADD_SUB': 0}]
Retrieved module io mapping from cache...
Simulation done for add_64b
[CPP][INFO] Python Done (1)
[CPP][INFO] Injected error masked by instruction, continue...
[CPP][INFO] INJ 0 at filtered instr # 12187618152
[CPP][INFO] No more injection points for this run...
[CPP][INFO] Early Exit...
[CPP][INFO] CommonFini...
[CPP][INFO] PIN Time Log:
[CPP][INFO] Start: 1553539345132969
[CPP][INFO] Inject: 1553539436559362
[CPP][INFO] End: 1553539437385070
