[CPP][INFO] Initialize (C++) error manager...
[CPP][INFO] Registering NULL...
[CPP][INFO] Registering BURST1...
[CPP][INFO] Registering BURST2...
[CPP][INFO] Registering BURST4...
[CPP][INFO] Registering BURST8...
[CPP][INFO] Registering RANDOM...
[CPP][INFO] Registering RANDOM_LH...
[CPP][INFO] Registering RANDBIT1...
[CPP][INFO] Registering RANDBIT2...
[CPP][INFO] Registering RANDBIT4...
[CPP][INFO] Registering RANDBIT8...
[CPP][INFO] Registering WRANDBIT1...
[CPP][INFO] Registering WRANDBIT2...
[CPP][INFO] Registering WRANDBIT4...
[CPP][INFO] Registering WRANDBIT8...
[CPP][INFO] Registering MANTB1...
[CPP][INFO] Registering MANTB2...
[CPP][INFO] Registering MANTB4...
[CPP][INFO] Registering MANTB8...
[CPP][INFO] Registering MANTRAND...
[CPP][INFO] Registering MANTRAND2...
[CPP][INFO] Registering MANTRAND4...
[CPP][INFO] Registering MANTRAND8...
[CPP][INFO] Registering MANTRAND16...
[CPP][INFO] Registering MANTRAND2I...
[CPP][INFO] Registering MANTRAND4I...
[CPP][INFO] Registering MANTRAND8I...
[CPP][INFO] Registering MANTRAND16I...
[CPP][INFO] Registering MANTR1...
[CPP][INFO] Registering MANTR2...
[CPP][INFO] Registering MANTR4...
[CPP][INFO] Registering MANTR8...
[CPP][INFO] Registering TIMING_PREV1...
[CPP][INFO] Registering TIMING_LUT85...
[CPP][INFO] Registering TIMING_LUT78...
[CPP][INFO] Registering MEM_HIGH...
[CPP][INFO] Registering MEM_LOW...
[CPP][INFO] Registering MEM_FLIP...
[CPP][INFO] Registering MODULO3...
[CPP][INFO] Registering MODULO5...
[CPP][INFO] Registering MODULO3_5...
[CPP][INFO] Init python...
[CPP][INFO] Registering TIMING_RTL...
[CPP][INFO] Create timing error injector...
[CPP][INFO] Load PYYAML file...
[CPP][INFO] Call Python, Setup
[CPP][INFO] Python Done (1)
[CPP][INFO] =====Enter PHASE_GET_PREV=====
[CPP][INFO] Overprovision injection points for single transient error...
[CPP][INFO] Register Output injection
[CPP][INFO] Injection Mode...
[CPP][INFO] Pre-Inst routine...
[CPP][INFO] Pre state save...
[CPP][INFO] Post-Inst routine...
[CPP][INFO] Save Post state to previous context...
[CPP][INFO] =====Enter PHASE_EVAL=====
[CPP][INFO] Pre-Inst routine...
[CPP][INFO] Post-Inst routine...
[CPP][INFO] Pre-Inst routine...
[CPP][INFO] Post-Inst routine...
[CPP][INFO] Pre-Inst routine...
[CPP][INFO] Pre state save...
[CPP][INFO] Post-Inst routine...
[CPP][INFO] Post state save...
[CPP][INFO] =====Enter PHASE_INJECT=====
[CPP][INFO] Rollback to target...
[CPP][INFO] Rollback inputs...
[CPP][INFO] Debug Rollback Input REG,lane 0 has value 0x3fe58406b202b07e
[CPP][INFO] Debug Rollback Input REG,lane 0 has value 0x3fc8177ca1302ef9
[CPP][INFO] Rollback outputs...
[CPP][INFO] Pre-Inst routine...
[CPP][INFO] Post-Inst routine...
[CPP][INFO] Iterative injection loop disabled ...
[CPP][INFO] Load PYYAML file...
[CPP][INFO] Call Python, InjectError
Use liberty file: /work/03844/cchang81/lonestar/hamartia/timing_error_injector/saed32_liberty/saed32rvt_tt0p78v25c.lib
Injection mask: [0, 1, 0]
Prev input: [{'inst_b': 4606412188968884913, 'inst_a': 13824490691863308821L, 'inst_rnd': 0}]
Cur input: [{'inst_b': 4595949243779264249, 'inst_a': 4604231358347391102, 'inst_rnd': 0}]
Retrieved module io mapping from cache...
Retrieved module io mapping from cache...
Retrieved module io mapping from cache...
Simulation done for fp_mult_64b_2_stages
[CPP][INFO] Python Done (1)
[CPP][INFO] INJ 1 at filtered instr # 202116571
[CPP][INFO] Rollback outputs...
[CPP][INFO] Save injection context...
[CPP][INFO] Commit context...
[CPP][INFO] Finish!
[CPP][INFO] CommonFini...
[CPP][INFO] PIN Time Log:
[CPP][INFO] Start: 1553539345176432
[CPP][INFO] Inject: 1553539348123553
[CPP][INFO] End: 1553539352352739
[CPP][INFO] Return
[CPP][INFO] Pre-Inst routine...
[CPP][INFO] Disable Instrumentation...
